id,name,model_id:id,group_id:id,perm_read,perm_write,perm_create,perm_unlink
,,,,,,,
,,,,,,,
employee_rights_employee_travel_request,employee.travel.request,model_employee_travel_request,base.group_user,1,1,1,0
hr_head_rights_employee_travel_request,employee.travel.request,model_employee_travel_request,hr.group_hr_manager,1,1,1,0
hr_head_rights_employee_travel_request,employee.travel.request,model_employee_travel_request,hr.group_hr_user,1,1,1,0
access_hr_employee_travel_mode_user,travel.mode,model_travel_mode,base.group_user,1,1,1,0
